<?xml version="1.0" encoding="UTF-8" standalone="no"?>
<!-- Created with Inkscape (http://www.inkscape.org/) -->

<svg
   xmlns:dc="http://purl.org/dc/elements/1.1/"
   xmlns:cc="http://creativecommons.org/ns#"
   xmlns:rdf="http://www.w3.org/1999/02/22-rdf-syntax-ns#"
   xmlns:svg="http://www.w3.org/2000/svg"
   xmlns="http://www.w3.org/2000/svg"
   xmlns:sodipodi="http://sodipodi.sourceforge.net/DTD/sodipodi-0.dtd"
   xmlns:inkscape="http://www.inkscape.org/namespaces/inkscape"
   width="48"
   height="48"
   id="svg2"
   version="1.1"
   inkscape:version="0.48.4 r9939"
   sodipodi:docname="iconGrid8x8.svg"
   inkscape:export-filename="/run/media/tom/Data/Documents/Documents/cours/Polytech 3A/Algo/Projet/CMIYC/resources/iconGrid8x8.png"
   inkscape:export-xdpi="180"
   inkscape:export-ydpi="180">
  <defs
     id="defs4" />
  <sodipodi:namedview
     id="base"
     pagecolor="#ffffff"
     bordercolor="#666666"
     borderopacity="1.0"
     inkscape:pageopacity="0.0"
     inkscape:pageshadow="2"
     inkscape:zoom="10.645833"
     inkscape:cx="24"
     inkscape:cy="24"
     inkscape:document-units="px"
     inkscape:current-layer="layer1"
     showgrid="false"
     inkscape:window-width="1366"
     inkscape:window-height="709"
     inkscape:window-x="0"
     inkscape:window-y="27"
     inkscape:window-maximized="1" />
  <metadata
     id="metadata7">
    <rdf:RDF>
      <cc:Work
         rdf:about="">
        <dc:format>image/svg+xml</dc:format>
        <dc:type
           rdf:resource="http://purl.org/dc/dcmitype/StillImage" />
        <dc:title></dc:title>
      </cc:Work>
    </rdf:RDF>
  </metadata>
  <g
     inkscape:label="Layer 1"
     inkscape:groupmode="layer"
     id="layer1"
     transform="translate(0,-1004.3622)"
     style="display:inline">
    <path
       style="font-size:medium;font-style:normal;font-variant:normal;font-weight:normal;font-stretch:normal;text-indent:0;text-align:start;text-decoration:none;line-height:normal;letter-spacing:normal;word-spacing:normal;text-transform:none;direction:ltr;block-progression:tb;writing-mode:lr-tb;text-anchor:start;baseline-shift:baseline;color:#000000;fill:#000000;fill-opacity:1;stroke:none;stroke-width:0.9976759px;marker:none;visibility:visible;display:inline;overflow:visible;enable-background:accumulate;font-family:Sans;-inkscape-font-specification:Sans"
       d="M 0 0 L 0 0.5 L 0 40.90625 L 0 41.40625 L 0.5 41.40625 L 18.40625 41.40625 C 18.37872 41.206485 18.34375 40.994499 18.34375 40.78125 C 18.34375 40.648997 18.362102 40.533782 18.375 40.40625 L 11.09375 40.40625 L 11.09375 31.3125 L 20.1875 31.3125 L 20.1875 32.84375 C 20.488168 32.679853 20.820273 32.563599 21.1875 32.46875 L 21.1875 31.3125 L 30.28125 31.3125 L 30.28125 35.15625 L 31.28125 35.15625 L 31.28125 31.3125 L 40.375 31.3125 L 40.375 32.8125 C 40.679629 32.656928 41.004959 32.52578 41.375 32.4375 L 41.375 0.5 L 41.375 0 L 40.875 0 L 0.5 0 L 0 0 z M 1 1 L 10.09375 1 L 10.09375 10.125 L 1 10.125 L 1 1 z M 11.09375 1 L 20.1875 1 L 20.1875 10.125 L 11.09375 10.125 L 11.09375 1 z M 21.1875 1 L 30.28125 1 L 30.28125 10.125 L 21.1875 10.125 L 21.1875 1 z M 31.28125 1 L 40.375 1 L 40.375 10.125 L 31.28125 10.125 L 31.28125 1 z M 1 11.125 L 10.09375 11.125 L 10.09375 20.21875 L 1 20.21875 L 1 11.125 z M 11.09375 11.125 L 20.1875 11.125 L 20.1875 20.21875 L 11.09375 20.21875 L 11.09375 11.125 z M 21.1875 11.125 L 30.28125 11.125 L 30.28125 20.21875 L 21.1875 20.21875 L 21.1875 11.125 z M 31.28125 11.125 L 40.375 11.125 L 40.375 20.21875 L 31.28125 20.21875 L 31.28125 11.125 z M 1 21.21875 L 10.09375 21.21875 L 10.09375 30.3125 L 1 30.3125 L 1 21.21875 z M 11.09375 21.21875 L 20.1875 21.21875 L 20.1875 30.3125 L 11.09375 30.3125 L 11.09375 21.21875 z M 21.1875 21.21875 L 30.28125 21.21875 L 30.28125 30.3125 L 21.1875 30.3125 L 21.1875 21.21875 z M 31.28125 21.21875 L 40.375 21.21875 L 40.375 30.3125 L 31.28125 30.3125 L 31.28125 21.21875 z M 1 31.3125 L 10.09375 31.3125 L 10.09375 40.40625 L 1 40.40625 L 1 31.3125 z M 41.375 33.46875 C 41.041449 33.569881 40.757735 33.684725 40.53125 33.84375 C 40.469842 33.886864 40.429635 33.953744 40.375 34 L 40.375 37.09375 C 40.61626 37.293439 40.934099 37.43899 41.34375 37.5625 L 41.1875 38.03125 L 41.34375 38.5 C 40.944642 38.610303 40.637551 38.789639 40.375 38.96875 L 40.375 40.40625 L 39.5 40.40625 C 39.484802 40.53239 39.46875 40.639488 39.46875 40.78125 C 39.46875 41.002522 39.502091 41.218493 39.53125 41.40625 L 40.875 41.40625 L 41.21875 41.40625 C 41.152283 41.168001 41.124999 40.89253 41.125 40.625 C 41.124998 40.208333 41.208333 39.833348 41.375 39.5 L 41.375 35.84375 L 41.375 33.46875 z M 21.1875 33.5 C 20.889649 33.596848 20.611381 33.699719 20.40625 33.84375 C 20.326153 33.899986 20.255007 33.969569 20.1875 34.03125 L 20.1875 37 C 20.426405 37.223312 20.757597 37.391977 21.1875 37.53125 L 21.1875 33.5 z M 30.28125 36.15625 L 30.28125 36.875 L 31.28125 38.25 L 31.28125 36.1875 L 31.25 36.15625 L 30.28125 36.15625 z M 21.1875 37.8125 L 21.125 38.03125 L 21.1875 38.25 L 21.1875 37.8125 z M 21.1875 38.53125 C 20.781301 38.650485 20.447561 38.807275 20.1875 39 L 20.1875 40.40625 L 19.375 40.40625 C 19.357239 40.53239 19.34375 40.639488 19.34375 40.78125 C 19.34375 41.002522 19.374593 41.218493 19.40625 41.40625 L 21.125 41.40625 C 21.058533 41.168001 21.031248 40.89253 21.03125 40.625 C 21.031247 40.286458 21.079355 39.975289 21.1875 39.6875 L 21.1875 38.53125 z M 30.28125 38.5625 L 30.28125 40.40625 L 27.90625 40.40625 C 27.918912 40.533871 27.937498 40.648813 27.9375 40.78125 C 27.937498 40.994499 27.902532 41.206485 27.875 41.40625 L 29.78125 41.40625 L 31.09375 39.65625 L 30.28125 38.5625 z M 22.0625 40.40625 C 22.05373 40.483029 22.031249 40.532247 22.03125 40.625 C 22.031248 40.988324 22.099767 41.229194 22.21875 41.40625 L 24.09375 41.40625 C 24.21165 41.229776 24.281245 40.989537 24.28125 40.625 C 24.281249 40.531576 24.259074 40.483397 24.25 40.40625 L 22.0625 40.40625 z M 25.25 40.40625 C 25.255533 40.483029 25.281249 40.546152 25.28125 40.625 C 25.281247 40.891888 25.254742 41.168015 25.1875 41.40625 L 26.875 41.40625 C 26.90416 41.218493 26.937498 41.002522 26.9375 40.78125 C 26.937498 40.639742 26.921165 40.532309 26.90625 40.40625 L 25.25 40.40625 z M 31.78125 40.40625 L 31.03125 41.40625 L 32.46875 41.40625 L 32.78125 40.96875 L 33.1875 40.40625 L 31.78125 40.40625 z M 33.1875 40.40625 L 33.59375 40.96875 L 33.90625 41.40625 L 35.375 41.40625 L 34.65625 40.40625 L 33.1875 40.40625 z M 35.90625 40.40625 L 36.625 41.40625 L 38.5 41.40625 C 38.474144 41.206627 38.46875 40.994336 38.46875 40.78125 C 38.46875 40.648997 38.488552 40.533782 38.5 40.40625 L 35.90625 40.40625 z "
       transform="translate(0,1004.3622)"
       id="path3832" />
  </g>
  <g
     inkscape:groupmode="layer"
     id="layer2"
     inkscape:label="Layer"
     style="display:inline">
    <text
       sodipodi:linespacing="125%"
       id="text3895"
       y="1048.2291"
       x="17.94129"
       style="font-size:15px;font-style:normal;font-weight:normal;line-height:125%;letter-spacing:0px;word-spacing:0px;fill:#7300cb;fill-opacity:1;stroke:none;display:inline;font-family:Sans"
       xml:space="preserve"
       transform="translate(0,-1004.3622)"><tspan
         style="font-weight:bold;stroke:none;-inkscape-font-specification:Sans Bold"
         y="1048.2291"
         x="17.94129"
         id="tspan3897"
         sodipodi:role="line">8x8</tspan></text>
  </g>
</svg>
